779605 749740 468
660120 372928 509
14030 736106 509
643680 342601 509
791287 387707 509
464535 816152 509
253604 513707 470
631821 999652 525
461969 700112 509
286874 242211 407
599230 213382 470
762963 239403 509
179082 328065 443
116982 371104 443
193246 358566 443
751995 188720 509
741596 879740 525
977741 199046 525
797320 295280 509
688565 552506 509
393212 956481 525
874779 109273 525
584285 607353 403
288889 362580 441
673373 676816 385
547828 175743 470
261658 236474 368
253430 201777 443
884852 750871 525
135390 544525 470
143523 290490 443
954495 645621 525
631253 755549 504
312176 223627 443
84721 518270 470
766651 385112 509
920910 797305 525
911279 960185 507
461940 627404 509
108355 982150 525
154984 803742 509
689414 676231 398
144100 195247 383
729902 680603 504
840887 130649 525
969989 295081 525
425691 804880 509
537909 138162 470
804391 157637 509
294337 572624 470
530208 414742 470
566410 243678 470
555691 240796 470
959299 87002 525
434903 325744 449
168859 535312 470
31473 437564 449
765407 940873 525
8982 16297 276
254889 801532 509
767390 632549 504
124695 278604 443
501600 948868 525
427349 658145 509
361295 270905 441
608932 422065 470
103546 987089 525
639201 600617 509
834090 210209 509
596694 754316 509
937801 237188 525
716867 866358 525
762216 97710 509
244567 705956 509
124567 86776 354
161565 143598 383
241115 542672 470
235365 985017 525
354812 931774 525
892843 484535 525
248676 640763 509
325487 601522 470
995450 305649 525
111583 226926 386
169019 696593 509
369640 475313 449
854466 929354 476
675581 700839 442
177456 902589 525
568186 572733 377
900576 287151 525
901442 586684 525
893684 859019 445
403976 555073 470
604691 448232 470
273346 787072 509
175565 25605 383
221964 989999 525
144951 241201 443
753336 103351 509
515988 796396 509
499281 26555 449
488435 638731 509
296691 401544 441
959117 888253 507
373761 633002 509
317199 649462 509
262259 255978 345
541981 759161 509
4467 356070 443
999285 456953 525
883421 230017 525
194205 415058 449
619705 886883 525
196274 958587 525
441791 97343 449
134926 116507 344
677609 754729 504
205362 350971 443
91939 301518 443
141429 339309 443
104926 630464 509
50859 85767 351
682964 961147 525
201395 306970 443
761413 380897 509
341308 586320 470
462934 317209 449
7341 714334 509
386519 817609 509
568172 877195 525
860643 770640 525
90345 907162 525
244684 177668 443
246221 957680 525
171071 617585 470
180932 317894 443
798392 599584 509
367018 712013 509
798071 166316 509
65992 176154 383
342772 410929 449
166472 852444 525
964889 109695 525
438035 944863 525
716661 976435 525
55871 782754 509
672889 696158 442
526135 187408 470
377854 905063 525
896250 268001 525
834408 742197 468
913706 535335 525
170303 826794 509
868599 915433 476
32153 56562 340
351154 439657 449
912338 802168 525
340858 113770 443
829470 627268 504
969013 486715 525
173585 321403 443
615711 636893 509
582864 981780 525
197142 314001 443
749252 342647 509
442136 42936 449
865489 247228 525
810517 854365 525
280335 703214 509
541401 171180 470
726796 327818 509
288318 989423 525
747322 133599 509
49877 990144 525
366026 838462 525
955824 78334 525
351649 810724 509
931681 802040 525
649916 690230 442
391643 351574 436
248257 203388 443
20785 827094 509
187919 571029 470
705335 943163 525
861376 767523 525
122596 611421 470
665131 834816 504
47410 642212 509
769348 993410 525
728634 65024 509
922345 512085 525
226769 184476 386
688941 506124 509
982263 937956 507
647714 155529 509
714252 507878 509
137316 725209 509
5286 734746 509
509865 577992 470
