501805 531723 470
107909 103879 354
388240 395785 436
395841 407027 405
93541 95226 328
421483 430195 418
874336 947224 507
967058 917646 507
292056 295495 358
406718 390458 405
77505 77978 245
511929 559200 470
617539 600205 447
133367 130276 331
708092 716890 411
444227 478246 444
441045 410631 418
536994 573531 452
495681 454197 444
545974 529399 408
912328 881595 476
49671 44778 314
203024 219054 386
934328 842569 476
462628 445055 444
800401 784997 468
821116 782582 468
500375 465756 426
778654 785090 362
511287 539273 470
415401 415534 250
222026 215557 386
867179 884754 432
833434 839514 525
909222 931563 476
211670 230377 386
868143 914320 476
462813 441394 444
370076 336086 441
202331 183381 360
457548 417343 418
301785 299081 371
183658 173061 365
249134 249973 332
876280 862970 432
29546 26826 272
805158 879885 525
707951 668899 504
852203 859175 419
78512 82652 338
451081 419858 418
965299 870693 507
643851 602107 509
104515 112251 354
380045 354937 423
162061 154908 383
653158 712964 504
739844 784748 468
343339 337436 366
903318 824943 525
12557 13283 276
148385 133654 375
99964 105474 341
215119 212246 373
852268 897726 445
309390 312381 384
154733 163842 383
976080 937017 507
168341 159851 370
910570 974961 507
767796 764411 362
71409 75050 325
683992 627621 442
436912 475580 444
374575 390039 436
158411 170732 370
558333 596958 434
450871 478247 444
884034 950678 507
529181 535943 377
444104 432514 400
352983 365300 410
922862 886969 476
137883 141632 344
512245 479002 470
220874 208634 386
140044 137686 313
104655 101218 310
94907 89642 333
244553 257958 363
767984 718988 468
387936 349562 423
490014 443255 444
573397 541858 452
199723 207510 373
639964 631461 416
236173 234965 306
962378 887404 507
903634 815773 525
648396 654652 385
50822 48661 296
177334 174604 334
708781 725376 411
565776 542527 452
280357 274906 389
285525 267114 407
554043 557575 421
756275 742732 424
821857 761182 468
627185 643094 416
583269 563919 421
744516 769151 468
222801 200580 386
456458 447175 387
176321 190502 365
877337 944289 507
826228 780536 468
374436 353169 410
262529 264856 407
58606 62819 335
873373 918091 476
230259 240277 443
106629 104604 354
635027 635069 248
56034 51587 340
253686 234701 368
957125 930891 507
735545 795061 468
389407 351866 436
840242 797726 525
915300 930950 476
667040 629366 442
384911 360369 423
963191 936624 507
478369 459050 444
812989 752319 468
132573 138969 344
357387 343775 441
241885 258261 363
55687 50281 340
62388 61941 317
189409 178070 365
669783 622223 509
391127 363439 436
747852 774742 468
953300 972598 458
647547 656692 385
383077 346782 423
210623 224887 386
865972 808986 525
670964 699926 442
626903 668844 442
218224 209864 386
54295 55233 260
250881 270713 407
873155 916479 476
769944 762638 468
789383 775236 437
780889 848441 525
523256 539605 408
448519 473095 444
46879 42931 314
251536 230687 381
331324 328482 353
526647 488114 470
627859 660433 429
503863 502198 333
98280 94485 328
120695 113357 349
615777 595339 447
276440 267858 407
355786 331970 441
838273 810706 525
648867 605455 509
330132 358896 441
380705 382801 374
29457 26572 308
273111 266309 407
531696 507403 470
469589 467467 413
571756 534694 452
57141 60932 317
503233 463802 426
940426 931646 507
16876 18360 279
22428 22331 269
663386 658493 354
45419 40902 314
429341 465157 444
571325 566984 377
843276 855622 419
48388 50230 296
120556 127401 336
245443 255762 363
957517 875715 507
666961 657544 442
198213 204418 342
505475 525371 470
474382 471018 382
825017 805119 450
411492 385188 449
871820 822888 525
719059 724413 411
135783 133528 344
107284 108098 279
44231 48146 314
597856 580707 434
920194 879393 476
611363 559822 434
556439 588941 434
428405 466298 444
505707 479700 426
338628 357121 441
189072 200573 360
716733 688581 504
646814 676119 442
79898 83705 320
385467 389459 436
439715 402285 449
644828 655837 385
142164 146935 375
96121 97578 297
737748 733934 424
931262 855522 476
410698 439332 418
27654 28208 259
859767 858111 370
746739 790502 468
424134 453084 400
401979 409076 405
937154 972503 507
925320 842767 476
348541 375591 410
276552 251970 407
586127 559356 434
877050 950478 507
763484 695042 504
552224 558598 421
595245 625089 447
989751 917539 507
272387 260223 407
334932 315369 384
671505 718764 504
906024 935646 476
903653 902635 370
598327 565065 434
257365 257708 332
837961 895238 445
666742 630611 442
385265 380392 374
623474 631180 509
879334 866967 432
967671 996642 458
644197 580954 509
226658 234746 443
870968 858543 388
174774 185729 365
17233 17686 279
487040 502637 426
869917 887018 445
988517 914437 507
709679 685160 504
662702 608238 509
842553 861791 419
706358 709995 349
533050 584850 452
124053 124763 287
289868 291476 327
418723 403138 449
182353 183153 334
888554 836046 525
62206 65978 330
581388 582963 328
156401 147741 383
993574 938864 507
630720 637533 416
357061 373693 410
774715 793907 437
359598 369997 410
294670 294312 296
179398 169116 347
685579 745068 504
238937 260728 368
279124 304702 389
634454 579228 509
872233 880388 432
192366 188337 360
797836 848639 525
12669 12160 263
486765 521976 470
778518 700893 504
413368 397980 449
102421 96005 341
278881 293649 389
572585 593034 434
47327 49136 314
621692 624504 372
510865 529910 470
530650 557030 452
335232 356485 441
937528 986620 507
607486 659597 509
851794 848896 357
497462 494451 351
921715 903412 476
288456 281850 376
659180 628017 429
523215 493492 470
914268 894009 476
473314 429324 444
644134 622806 509
554692 591854 434
705663 655327 504
409477 448633 449
673171 622960 509
333224 305881 384
605055 562872 434
792781 737100 468
562359 591334 434
644193 601819 509
548746 529809 452
944882 932332 507
418726 442190 418
708426 682101 504
976010 886488 507
232752 253572 381
77015 73201 325
164973 161813 339
714136 763894 424
674222 690774 398
580799 523515 452
332585 356982 441
433565 423952 387
172653 189473 365
188010 194611 360
565499 527117 452
769041 812257 468
743629 798630 468
530388 490613 470
570050 557206 421
969746 905976 507
88070 84246 333
496514 453929 444
558117 613179 434
397659 429689 449
24292 25933 264
903235 864348 445
26204 26881 308
984527 952209 458
961411 910604 507
467499 449195 444
928223 904276 476
853507 870767 419
863064 906220 445
154048 158222 383
865797 822783 525
11768 10858 268
773775 826088 468
580958 579315 328
830713 822498 419
155980 155202 308
233157 223994 443
616846 623136 372
358630 366633 410
325340 302767 384
447881 417822 418
835189 787184 468
261790 257820 345
589192 594262 403
793167 763160 468
901120 933150 476
274819 256470 407
190458 178329 365
297276 321638 384
344964 358229 441
724331 755224 424
483367 446331 444
850995 920318 476
681330 716489 504
935628 931012 414
101171 97545 341
125966 117742 336
288990 288811 252
721936 715677 411
917834 954118 507
44175 47137 314
893385 840925 445
466232 427107 444
172461 173175 303
837155 868362 525
434329 438893 400
765808 738172 424
553327 604590 434
400563 429407 449
521538 537196 408
634874 694047 442
2341 2442 165
411263 444997 418
253878 231771 381
983670 966287 458
172736 158838 370
362033 341625 441
363020 344192 441
144794 135350 375
603415 591762 403
805479 830098 450
149708 154395 370
679878 710529 504
645260 581704 509
259120 253473 363
63273 60360 335
411948 406469 449
510218 512367 470
496790 463729 426
502600 541539 470
692193 749288 504
913821 978879 507
323914 355052 441
954608 934085 507
816224 891387 525
799813 827608 450
811281 752932 468
599048 560289 434
868842 816100 525
857066 935304 476
884922 929481 476
210831 229869 386
862567 908999 445
512706 512342 333
353431 383361 423
760401 786020 468
841911 811268 525
597813 577150 434
308680 318196 384
956044 938882 507
677478 694796 442
284150 259007 407
844650 899809 445
99292 107088 354
119762 117612 336
458218 503078 444
809689 844730 525
169478 167174 334
325929 296185 384
