647325 479215 509
55706 718082 509
297540 544408 470
594072 423522 470
343139 247190 407
715637 200833 509
461512 864525 525
83505 647513 509
238073 811523 509
454218 279800 449
909546 986740 507
413987 791935 509
439216 205512 449
640233 712070 504
472143 810643 509
206923 755958 509
834539 583605 509
628506 377407 509
737369 548548 509
704948 496008 509
212289 596512 470
206867 35394 383
955782 580969 525
473254 433902 444
775371 887883 525
270620 443143 449
610864 512481 452
838309 514460 525
194739 656972 509
839492 951379 507
501302 21339 449
764092 378169 509
405546 338375 441
399187 714849 509
214410 434070 449
18829 88089 351
109007 963435 525
511119 913076 525
73825 998646 525
15498 951359 525
613430 77814 470
713790 888418 525
456191 947340 525
277051 20407 443
942461 590608 525
217876 881461 525
196775 950763 525
791152 81288 509
136566 485564 449
588781 306497 470
721630 204243 509
457395 997723 525
634597 73879 509
998385 701787 525
761945 486594 509
834097 992809 525
123709 703719 509
470925 575344 470
742073 902014 525
13999 62369 340
190956 288434 443
167091 955432 525
872080 594324 525
540076 335267 470
941064 219064 525
246004 896808 525
126805 223945 386
190081 98583 383
520919 515142 439
532064 621149 452
653170 428885 509
655622 480678 509
827410 13346 509
81972 604536 470
20968 103317 351
32113 646621 509
872680 593797 525
824308 458232 509
444090 391102 449
701479 980211 525
199495 991747 525
594505 287602 470
311336 594936 470
924552 877619 476
90150 612573 470
84049 818144 509
471726 242310 449
37388 992130 525
810556 812296 406
288282 343588 389
202418 579221 470
271914 818065 509
723744 546762 509
897287 233256 525
368767 391664 436
121322 291380 443
444105 263433 449
157076 316918 443
617975 180487 470
895538 730381 525
144825 590106 470
700281 413381 509
629976 954527 525
482518 236429 449
120638 649803 509
20710 614855 470
79725 147498 375
757930 979625 525
62329 893914 525
262431 803981 509
879310 863608 432
182550 974377 525
484504 27189 449
833824 709182 468
725122 847417 525
791125 72113 509
577458 400593 470
955391 808594 525
455870 216584 449
409658 576908 470
545979 40973 470
709485 282769 509
60098 268549 443
924008 991129 507
273165 95952 443
920803 872895 476
713109 693016 504
179894 44750 383
872351 862309 432
371681 596377 470
759236 938181 525
317536 431913 449
341354 353881 441
74487 975641 525
614262 436110 470
857941 174653 525
332192 358936 441
500473 388738 449
96642 291282 443
335276 64665 443
205274 995707 525
304505 339080 384
180795 216965 386
74432 468879 449
226577 38367 386
639855 945689 525
600736 283030 470
267875 222319 443
896487 522376 525
789609 587333 509
675987 419527 509
894166 4114 525
375317 613306 470
453842 523423 470
783592 459495 509
423230 918171 525
144165 51371 375
174081 919346 525
790690 278808 509
283952 98090 443
734695 66934 509
987131 998573 440
861603 169062 525
760834 759006 380
361157 121562 443
567658 53126 470
371849 948483 525
398271 405180 387
724283 387748 509
128018 328240 443
739257 161149 509
52026 100092 351
905318 15254 525
217653 549616 470
295340 780060 509
767050 888838 525
70503 260058 443
346462 349303 348
266985 549462 470
30719 244492 443
349628 25031 443
497449 608140 470
868673 137471 525
984966 806441 525
100392 375772 443
981387 163898 525
341110 571856 470
36147 584794 470
22347 210318 383
484822 502611 426
323809 540172 470
676896 118568 509
890592 345405 525
26834 742585 509
322917 604616 470
384528 857501 525
578300 341210 470
418698 7506 449
126006 527110 470
597710 226549 470
